{

"images": [
    "ressources/atlas/missile.png"
],

"framerate": 8,
"frames": [
    [1, 1, 475, 95, 0, -7, -7],
    [1, 98, 445, 95, 0, -37, -7],
    [1, 195, 434, 95, 0, -48, -7],
    [1, 292, 408, 95, 0, -74, -7]
],

"animations": {
    "ms2": { "frames": [0, 3, 1, 2] }
},

"texturepacker": [
        "SmartUpdateHash: $TexturePacker:SmartUpdate:fe259cf9d88adc8a0108d2d2421d38bb:7fae9f83d4ebf67b75f91b3f0e4a0753:374f7ff32664eed124db18508e855e3b$",
        "Created with TexturePacker (https://www.codeandweb.com/texturepacker) for EaselJS"
]

}
